<svg xmlns="http://www.w3.org/2000/svg" width="54" height="54" viewBox="0 0 54 54">
  <metadata><?xpacket begin="﻿" id="W5M0MpCehiHzreSzNTczkc9d"?>
<x:xmpmeta xmlns:x="adobe:ns:meta/" x:xmptk="Adobe XMP Core 5.6-c138 79.159824, 2016/09/14-01:09:01        ">
   <rdf:RDF xmlns:rdf="http://www.w3.org/1999/02/22-rdf-syntax-ns#">
      <rdf:Description rdf:about=""/>
   </rdf:RDF>
</x:xmpmeta>
                                                                                                    
                                                                                                    
                                                                                                    
                                                                                                    
                                                                                                    
                                                                                                    
                                                                                                    
                                                                                                    
                                                                                                    
                                                                                                    
                                                                                                    
                                                                                                    
                                                                                                    
                                                                                                    
                                                                                                    
                                                                                                    
                                                                                                    
                                                                                                    
                                                                                                    
                                                                                                    
                           
<?xpacket end="w"?></metadata>
<defs>
    <style>
      .cls-1 {
        fill: #fff;
        fill-rule: evenodd;
      }
    </style>
  </defs>
  <path class="cls-1" d="M361,1670a14,14,0,1,0,14,14A14.015,14.015,0,0,0,361,1670Zm0,26a12,12,0,1,1,12-12A12.011,12.011,0,0,1,361,1696Zm24.22-18H383.2a22.932,22.932,0,0,0-2.26-5.46l1.426-1.42a2.791,2.791,0,0,0,0-3.94l-4.553-4.55a2.849,2.849,0,0,0-3.933,0l-1.426,1.43A22.536,22.536,0,0,0,367,1661.8v-2.02a2.785,2.785,0,0,0-2.78-2.78H357.78a2.785,2.785,0,0,0-2.78,2.78v2.02a22.559,22.559,0,0,0-5.457,2.26l-1.426-1.43a2.849,2.849,0,0,0-3.933,0l-4.553,4.55a2.791,2.791,0,0,0,0,3.94l1.426,1.42A22.929,22.929,0,0,0,338.8,1678H336.78a2.785,2.785,0,0,0-2.78,2.78v6.44a2.785,2.785,0,0,0,2.78,2.78H338.8a22.932,22.932,0,0,0,2.26,5.46l-1.426,1.42a2.791,2.791,0,0,0,0,3.94l4.553,4.55a2.849,2.849,0,0,0,3.933,0l1.426-1.43A22.559,22.559,0,0,0,355,1706.2v2.02a2.785,2.785,0,0,0,2.78,2.78h6.438a2.785,2.785,0,0,0,2.78-2.78v-2.02a22.559,22.559,0,0,0,5.457-2.26l1.426,1.43a2.849,2.849,0,0,0,3.933,0l4.553-4.55a2.791,2.791,0,0,0,0-3.94l-1.426-1.42a22.973,22.973,0,0,0,2.26-5.46h2.018a2.785,2.785,0,0,0,2.78-2.78v-6.44A2.786,2.786,0,0,0,385.219,1678Zm0.78,9.22a0.781,0.781,0,0,1-.78.78h-3.592l-0.18.77a20.838,20.838,0,0,1-2.613,6.31l-0.42.68,2.539,2.54a0.776,0.776,0,0,1,0,1.1l-4.553,4.55a0.772,0.772,0,0,1-1.1,0l-2.539-2.54-0.674.42a20.7,20.7,0,0,1-6.311,2.62l-0.773.18v3.59a0.781,0.781,0,0,1-.78.78H357.78a0.781,0.781,0,0,1-.78-0.78v-3.59l-0.773-.18a20.725,20.725,0,0,1-6.311-2.62l-0.674-.42-2.539,2.54a0.772,0.772,0,0,1-1.1,0l-4.553-4.55a0.776,0.776,0,0,1,0-1.1l2.539-2.54-0.42-.68a20.812,20.812,0,0,1-2.613-6.31l-0.18-.77H336.78a0.781,0.781,0,0,1-.78-0.78v-6.44a0.781,0.781,0,0,1,.78-0.78h3.592l0.18-.77a20.838,20.838,0,0,1,2.613-6.31l0.42-.68-2.539-2.54a0.776,0.776,0,0,1,0-1.1l4.553-4.55a0.772,0.772,0,0,1,1.1,0l2.539,2.53,0.674-.42a20.934,20.934,0,0,1,6.311-2.61l0.773-.18v-3.59a0.781,0.781,0,0,1,.78-0.78h6.438a0.781,0.781,0,0,1,.781.78v3.59l0.773,0.18a20.955,20.955,0,0,1,6.311,2.61l0.674,0.42,2.539-2.53a0.772,0.772,0,0,1,1.1,0l4.553,4.55a0.776,0.776,0,0,1,0,1.1l-2.539,2.54,0.42,0.68a20.708,20.708,0,0,1,2.613,6.31l0.18,0.77h3.592a0.781,0.781,0,0,1,.78.78v6.44ZM361,1674a10,10,0,1,0,10,10A10.014,10.014,0,0,0,361,1674Zm0,18a8,8,0,1,1,8-8A8.01,8.01,0,0,1,361,1692Z" transform="translate(-334 -1657)"/>
</svg>
